Crane;5
1;1;1
2;1;1
3;1;1
4;1;1
5;1;1
6;1;1
7;1;1
8;1;1
9;1;1
10;1;1
11;1;1;1;2;3;4;5;6;7;8;9;10
12;1;1;1;2;3;4;5;6;7;8;9;10
13;1;1;1;2;3;4;5;6;7;8;9;10
14;1;1;1;2;3;4;5;6;7;8;9;10
15;1;1;1;2;3;4;5;6;7;8;9;10
16;1;1;1;2;3;4;5;6;7;8;9;10
17;1;1;1;2;3;4;5;6;7;8;9;10
18;1;1;1;2;3;4;5;6;7;8;9;10
19;1;1;1;2;3;4;5;6;7;8;9;10
20;1;1;1;2;3;4;5;6;7;8;9;10